{
  "status": "SUCCESS",
  "data": {
    "content": [
      {
        "accountIdentifier": "accountId",
        "referredByEntity": {
          "name": "Sample Secret",
          "type": "secrets",
          "entityRef": {
            "accountIdentifier": "ACCOUNTID",
            "identifier": "hbgjgjpasswordRef",
            "orgIdentifier": null,
            "projectIdentifier": null,
            "scope": "ACCOUNT"
          }
        },
        "referredEntity": {
          "name": "Harness Secrets Manager",
          "type": "connectors",
          "entityRef": {
            "accountIdentifier": "ACCOUNTID",
            "identifier": "hbgjgjpasswordRef",
            "orgIdentifier": null,
            "projectIdentifier": null,
            "scope": "ACCOUNT"
          }
        },
        "createdAt": 1601455231251
      },
      {
        "accountIdentifier": "accountId",
        "referredByEntity": {
          "name": "Sample pipeline",
          "type": "pipelines",
          "entityRef": {
            "accountIdentifier": "ACCOUNTID",
            "identifier": "hbgjgjpasswordRef",
            "orgIdentifier": null,
            "projectIdentifier": null,
            "scope": "ACCOUNT"
          }
        },
        "referredEntity": {
          "name": "Harness Secrets Manager",
          "type": "connectors",
          "entityRef": {
            "accountIdentifier": "ACCOUNTID",
            "identifier": "hbgjgjpasswordRef",
            "orgIdentifier": null,
            "projectIdentifier": null,
            "scope": "ACCOUNT"
          }
        },
        "createdAt": 1601355284118
      },
      {
        "accountIdentifier": "accountId",
        "referredByEntity": {
          "name": "Sample project",
          "type": "projects",
          "entityRef": {
            "accountIdentifier": "ACCOUNTID",
            "identifier": "hbgjgjpasswordRef",
            "orgIdentifier": null,
            "projectIdentifier": null,
            "scope": "ACCOUNT"
          }
        },
        "referredEntity": {
          "name": "Harness Secrets Manager",
          "type": "connectors",
          "entityRef": {
            "accountIdentifier": "ACCOUNTID",
            "identifier": "hbgjgjpasswordRef",
            "orgIdentifier": null,
            "projectIdentifier": null,
            "scope": "ACCOUNT"
          }
        },
        "createdAt": 1601398588954
      }
    ],
    "pageable": {
      "sort": { "sorted": true, "unsorted": false, "empty": false },
      "offset": 0,
      "pageSize": 10,
      "pageNumber": 0,
      "paged": true,
      "unpaged": false
    },
    "totalPages": 15,
    "totalElements": 144,
    "last": false,
    "first": true,
    "size": 10,
    "number": 0,
    "sort": { "sorted": true, "unsorted": false, "empty": false },
    "numberOfElements": 10,
    "empty": false
  },
  "metaData": null,
  "correlationId": "c4b5150f-c9aa-4afe-9e89-dae575fd3810"
}
